{
  "images" : [
    {
      "filename" : "CHANE ME WITH YOUR APP NAME 2-8.png",
      "idiom" : "mac",
      "scale" : "1x",
      "size" : "16x16"
    },
    {
      "filename" : "CHANE ME WITH YOUR APP NAME 2-7.png",
      "idiom" : "mac",
      "scale" : "2x",
      "size" : "16x16"
    },
    {
      "filename" : "CHANE ME WITH YOUR APP NAME 2-6.png",
      "idiom" : "mac",
      "scale" : "1x",
      "size" : "32x32"
    },
    {
      "filename" : "CHANE ME WITH YOUR APP NAME 2-5.png",
      "idiom" : "mac",
      "scale" : "2x",
      "size" : "32x32"
    },
    {
      "filename" : "CHANE ME WITH YOUR APP NAME 2-4.png",
      "idiom" : "mac",
      "scale" : "1x",
      "size" : "128x128"
    },
    {
      "filename" : "CHANE ME WITH YOUR APP NAME 2-3.png",
      "idiom" : "mac",
      "scale" : "2x",
      "size" : "128x128"
    },
    {
      "filename" : "CHANE ME WITH YOUR APP NAME 2-2.png",
      "idiom" : "mac",
      "scale" : "1x",
      "size" : "256x256"
    },
    {
      "filename" : "CHANE ME WITH YOUR APP NAME 2-1.png",
      "idiom" : "mac",
      "scale" : "2x",
      "size" : "256x256"
    },
    {
      "filename" : "CHANE ME WITH YOUR APP NAME 2.png",
      "idiom" : "mac",
      "scale" : "1x",
      "size" : "512x512"
    },
    {
      "filename" : "CHANE ME WITH YOUR APP NAME.png",
      "idiom" : "mac",
      "scale" : "2x",
      "size" : "512x512"
    }
  ],
  "info" : {
    "author" : "xcode",
    "version" : 1
  }
}
